Adding Observations in RLMS using R - Privalko Blog
…
load("C:/Users/Ivan/Desktop/dir/data/rlms/adult2015x.RData")
y2015 <- x %>%
  select(round, 
         id = tid,
         gndr = ixgender,
         income = ixinclmo)

The load command saves the entire file to a variable called x. I’m not interested in using the whole file, so I use some commands from dplyr to pick out the measures I need. RLMS contains some arbitrary prefixes for variables, which I also edit out. The most important variable in the set is the id, which I’ll use as a “key” for matching measures in both years to the same individuals.

Before moving on, it’s worth checking if the file was uploaded correctly.

as.tibble(y2015)

## # A tibble: 15,118 x 4
##    round      id  gndr income
##  * <int>   <int> <int>  <dbl>
##  1    24 1000101     2  40000
##  2    24 1000203     2  47000
##  3    24 1000301     2  14514
##  4    24 1000401     2  13400
##  5    24 1001001     2  22000
##  6    24 1001102     2  36350
##  7    24 1001201     2  44000
##  8    24 1001301     1  28000
##  9    24 1001302     2  24500
## 10    24 1001401     2  15300
## # ... with 15,108 more rows

The first column, running from 1 to 10 lists the observations. The vector round, notes that all observations are from the 24th round of data collection (back in 2015). The id variable capture’s a respondents unique identifier. The last two measures capture their gender, and their age. Since gender is a factor, we can recode this, but I will leave this for another update. For now, I have the data for 2015 loaded, and it seems to have about 15,000+ observations with measures of gender and income. I now consider the data for 2014.

load("C:/Users/Ivan/Desktop/dir/data/rlms/adult2014w.RData")
y2014 <- x %>%
  select(round, 
         id = sid,
         gndr = iwgender,
         income = iwinclmo)

The code above is slightly different to the previous year’s. The variables which capture gender, income and ID are different from the previous dataset, and have a different set of prefixes. I delete these and give the variables names that are similar to the previous dataset. Again, I only use a subset of measures here, to keep things simple. The data from 2014 looks like this.

as.tibble(y2014)

## # A tibble: 15,173 x 4
##    round      id  gndr income
##  * <int>   <int> <int>  <dbl>
##  1    23 1000101     2  36000
##  2    23 1000103     1   7240
##  3    23 1000203     2  70000
##  4    23 1000301     2  13180
##  5    23 1000401     2  12200
##  6    23 1001001     2  18500
##  7    23 1001102     2  25000
##  8    23 1001201     2  45800
##  9    23 1001301     1  35000
## 10    23 1001302     2   9300
## # ... with 15,163 more rows
…
Joining data

If you’re interested in relational data, you should read Hadley Wickham’s chapter in R4DS on the topic. He has a great way of explaining the concept and some nice illustrations of exactly what R is doing when joining data.

If we wanted to take all the observations from 2015 and combine them with observations from 2014 (excluding those not relevant to 2015), we would use the left join command. I’ll call this dataframe j1.

j1 <- y2015 %>%
  left_join(y2014, by = "id")

The resulting data frame looks like this

as.tibble(j1)

## # A tibble: 15,118 x 7
##    round.x      id gndr.x income.x round.y gndr.y income.y
##      <int>   <int>  <int>    <dbl>   <int>  <int>    <dbl>
##  1      24 1000101      2    40000      23      2    36000
##  2      24 1000203      2    47000      23      2    70000
##  3      24 1000301      2    14514      23      2    13180
##  4      24 1000401      2    13400      23      2    12200
##  5      24 1001001      2    22000      23      2    18500
##  6      24 1001102      2    36350      23      2    25000
##  7      24 1001201      2    44000      23      2    45800
##  8      24 1001301      1    28000      23      1    35000
##  9      24 1001302      2    24500      23      2     9300
## 10      24 1001401      2    15300      23      2    10363
## # ... with 15,108 more rows

In total, there are 15,000+ individuals (rows) in the table above, identical to the number of rows in round 24 data above. A number of the observations from 2014 made it in, and a few others did not. For example, in 2014’s data there was a respondent with the number 1000103. Since that respondent didn’t answer the survey in 2015, he never made it into the dataframe above. This frame only contains data from 2015 and the 2014 observations that are relevant to 2015. Note that the variables for gender, round, and income are now split in two. One for 2015 and one for 2014. More on this later.

We can also a do the opposite of above. If we had the 2015 data, we could combine it with data from 2014, giving priority to 2014. In this way, we would take all of 2014 data, and only the 2015 observations that are relevant to 2014. The code below shows this, the data is labeled j2.

j2 <- y2015 %>%
  right_join(y2014, by = "id")

as.tibble(j2)

## # A tibble: 15,173 x 7
##    round.x      id gndr.x income.x round.y gndr.y income.y
##      <int>   <int>  <int>    <dbl>   <int>  <int>    <dbl>
##  1      24 1000101      2    40000      23      2    36000
##  2      NA 1000103     NA       NA      23      1     7240
##  3      24 1000203      2    47000      23      2    70000
##  4      24 1000301      2    14514      23      2    13180
##  5      24 1000401      2    13400      23      2    12200
##  6      24 1001001      2    22000      23      2    18500
##  7      24 1001102      2    36350      23      2    25000
##  8      24 1001201      2    44000      23      2    45800
##  9      24 1001301      1    28000      23      1    35000
## 10      24 1001302      2    24500      23      2     9300
## # ... with 15,163 more rows

In total, there are also, 15,000+ individuals (rows) above, same as in the 2014 data frame shown previously. The outcome is similar to the previous table, respondent number 1000103 is now back, but is missing the observations for 2015, a year where he didn’t take part.

All in all, we could just combine both datasets together. We could say, just lump all observations from both years together, and we will work from there. In this way the frame will hold individuals with values for either year, but not necessarily both years. The data below shows the process.

j3 <- y2015 %>%
  full_join(y2014, by = "id")

as.tibble(j3)

## # A tibble: 17,695 x 7
##    round.x      id gndr.x income.x round.y gndr.y income.y
##      <int>   <int>  <int>    <dbl>   <int>  <int>    <dbl>
##  1      24 1000101      2    40000      23      2    36000
##  2      24 1000203      2    47000      23      2    70000
##  3      24 1000301      2    14514      23      2    13180
##  4      24 1000401      2    13400      23      2    12200
##  5      24 1001001      2    22000      23      2    18500
##  6      24 1001102      2    36350      23      2    25000
##  7      24 1001201      2    44000      23      2    45800
##  8      24 1001301      1    28000      23      1    35000
##  9      24 1001302      2    24500      23      2     9300
## 10      24 1001401      2    15300      23      2    10363
## # ... with 17,685 more rows

There are 17,000+ individuals in the frame above. This frame is larger than the previous ones, since it contains observations from individuals as long as they gave an answer in either year. Finally, we could do the opposite of above, and only focus on those respondents who have an answer in both years. This approach will reduce our data, but will contain a “pure” group of individuals who participated in both years. This is called an inner join, and looks like this.

j4 <- y2015 %>%
  inner_join(y2014, by = "id")

as.tibble(j4)

## # A tibble: 12,596 x 7
##    round.x      id gndr.x income.x round.y gndr.y income.y
##      <int>   <int>  <int>    <dbl>   <int>  <int>    <dbl>
##  1      24 1000101      2    40000      23      2    36000
##  2      24 1000203      2    47000      23      2    70000
##  3      24 1000301      2    14514      23      2    13180
##  4      24 1000401      2    13400      23      2    12200
##  5      24 1001001      2    22000      23      2    18500
##  6      24 1001102      2    36350      23      2    25000
##  7      24 1001201      2    44000      23      2    45800
##  8      24 1001301      1    28000      23      1    35000
##  9      24 1001302      2    24500      23      2     9300
## 10      24 1001401      2    15300      23      2    10363
## # ... with 12,586 more rows
…
long1<-reshape(j4,
               varying=c("round.x",
                         "round.y",
                         "gndr.x",
                         "gndr.y",
                         "income.x",
                         "income.y"),
               direction="long", 
               idvar="id",
               sep=".")

as.tibble(long1)

## # A tibble: 25,192 x 5
##         id time  round  gndr income
##  *   <int> <chr> <int> <int>  <dbl>
##  1 1000101 x        24     2  40000
##  2 1000203 x        24     2  47000
##  3 1000301 x        24     2  14514
##  4 1000401 x        24     2  13400
##  5 1001001 x        24     2  22000
##  6 1001102 x        24     2  36350
##  7 1001201 x        24     2  44000
##  8 1001301 x        24     1  28000
##  9 1001302 x        24     2  24500
## 10 1001401 x        24     2  15300
## # ... with 25,182 more rows

Finally, we can declare the data to be panel data using the following.

p1 <- pdata.frame(long1, c("id", "round"))
as.tibble(p1)

## # A tibble: 25,192 x 5
##    id      time  round  gndr income
##  * <fct>   <fct> <fct> <int>  <dbl>
##  1 1000101 y     23        2  36000
##  2 1000101 x     24        2  40000
##  3 1000203 y     23        2  70000
##  4 1000203 x     24        2  47000
##  5 1000301 y     23        2  13180
##  6 1000301 x     24        2  14514
##  7 1000401 y     23        2  12200
##  8 1000401 x     24        2  13400
##  9 1001001 y     23        2  18500
## 10 1001001 x     24        2  22000
## # ... with 25,182 more rows
…
