Russian Opinion of Ukraine and Ukrainian Opinion of Russia - Privalko Blog
…
    5 min read

    Russian Opinion of Ukraine and Ukrainian Opinion of Russia

    2018/11/26

      Levada recently updated statistics on what Russian and Ukrainian citizens think of each other. I saw the update but forgot to dig into the numbers; yesterday’s events in Kerch reminded me to revisit these.

It seems like conflict between both countries is on the rise, but it’s worth looking back on how public opinion changed over the quieter months. In this post I merge the data gathered by Levada, and use some dplyr commands to simplify things, I then make a graph using ggplot.

A small disclaimer; I know almost nothing about Ukraine, and have no interest in Ukrainian politics. This post just summarises public opinion, I’ll leave interpretation to one side.

Levada collects Russian public opinion data multiple times per year. They summarise public opinion of Ukraine in a small table, and offer a second table, from a Ukrainian source listing public opinion of Russia. However, there’s no reason why you can’t just combine both of these together by adding a column which lists the source for either table. I add one of those to each table, translate the columns, add some dates and store these on github. I list a sample of the Russian data below.

## # A tibble: 28 x 7
##    date       v_good  good   bad v_bad dont_know source           
##    <chr>       <int> <int> <int> <int>     <int> <chr>            
##  1 01/09/2018      3    30    32    23        12 ru-opinion of ukr
##  2 01/07/2018      4    33    29    20        15 ru-opinion of ukr
##  3 01/03/2018      2    31    35    20        12 ru-opinion of ukr
##  4 01/01/2018      3    32    34    13        18 ru-opinion of ukr
##  5 01/12/2017      2    26    39    17        17 ru-opinion of ukr
##  6 01/09/2017      3    29    33    20        15 ru-opinion of ukr
##  7 01/05/2017      2    24    39    20        15 ru-opinion of ukr
##  8 01/03/2017      3    31    36    20        11 ru-opinion of ukr
##  9 01/01/2017      2    31    39    15        13 ru-opinion of ukr
## 10 01/11/2016      3    30    35    16        16 ru-opinion of ukr
## # ... with 18 more rows

A few issues exist with the measures above; these can be fixed once the Russian and Ukrainian figures are combined. I use bind_rows() here, and save a new dataframe called conflict.

conflict <- ru %>% 
  bind_rows(ukr)

tbl_df(conflict)

## # A tibble: 47 x 7
##    date       v_good  good   bad v_bad dont_know source           
##    <chr>       <int> <int> <int> <int>     <int> <chr>            
##  1 01/09/2018      3    30    32    23        12 ru-opinion of ukr
##  2 01/07/2018      4    33    29    20        15 ru-opinion of ukr
##  3 01/03/2018      2    31    35    20        12 ru-opinion of ukr
##  4 01/01/2018      3    32    34    13        18 ru-opinion of ukr
##  5 01/12/2017      2    26    39    17        17 ru-opinion of ukr
##  6 01/09/2017      3    29    33    20        15 ru-opinion of ukr
##  7 01/05/2017      2    24    39    20        15 ru-opinion of ukr
##  8 01/03/2017      3    31    36    20        11 ru-opinion of ukr
##  9 01/01/2017      2    31    39    15        13 ru-opinion of ukr
## 10 01/11/2016      3    30    35    16        16 ru-opinion of ukr
## # ... with 37 more rows
…
