Migration - Privalko Blog
…
    5 min read

    Migration

    2019/02/16

      In this post I look at migration figures released by Rosstat. A number of debates are happening in Russia about the inflow and outflow of migrants from former Soviet countries, and the effect these migrants have on wages. Separately, there is an argument that migration from Ukraine is falling, which likely has its own challenges. What do these inflows look like?

Rosstat releases data on this, but it’s awkward for three reasons. First, the annual summary of statistics doesn’t cover all of the available years, there’s a separate file on the site that reports the full list of figures, but this can be hard to find. I’ll use it in a separate post. Second, these figures are presented in a “wide format” table which then has to be arranged into a tidy format and passed on to ggplot. Third, there are some annoying quirks in the rosstat tables, like their tendency to include a total row by region in the middle of a table. These rows are helpful when you’re just reading the table, but not really useful for feeding the data into ggplot for a graph. Further, linked to this, there is no “other” category, so adding the specific countries together say like so data.frame %>% group_by(Region, Year) %>% summarise(total = sum(people)) does not add up to the total in the table. Generally, the table is messy, and looks like this if you just throw it in directly.

## # A tibble: 42 x 9
##    X1               `2000` `2005` `2010` `2013` `2014` `2015` `2016` `2017`
##    <chr>             <int>  <int>  <int>  <int>  <int>  <int>  <int>  <int>
##  1 arrivals             NA 177230 191656 482241 590824 598617 575158 589033
##  2 into russia      359330     NA     NA     NA     NA     NA     NA     NA
##  3 <NA>                 NA     NA     NA     NA     NA     NA     NA     NA
##  4 total                NA     NA     NA     NA     NA     NA     NA     NA
##  5 of which             NA     NA     NA     NA     NA     NA     NA     NA
##  6 from former sov~ 326561 163101 171940 422738 529448 536157 511773 524452
##  7 Azerbaijan        14906   4600  14500  23453  26367  24326  24109  25602
##  8 Armenia           15951   7581  19890  42361  46568  45670  43929  46898
##  9 Belarus           10274   6797   4894  15748  17931  17741  14590  21282
## 10 Kazakhstan       124903  51945  27862  51958  59142  65750  69356  71680
## # ... with 32 more rows

Before doing anything, I work on the table in excel. I do three things. First, I give each region its own “Other” row which makes up the difference between the listed countries and the region total. Second, I drop the region row. Third, I create a column for the Region measure.

After I get the table into R, I gather (using gather) each year, leaving the country and region measures alone. The resulting frame looks like this.

## # A tibble: 256 x 4
##    Region                      Country      Year  people
##    <chr>                       <chr>        <chr>  <dbl>
##  1 Union of Independent States Azerbaijan   2000   14906
##  2 Union of Independent States Armenia      2000   15951
##  3 Union of Independent States Belarus      2000   10274
##  4 Union of Independent States Kazakhstan   2000  124903
##  5 Union of Independent States Kyrgyzstan   2000   15536
##  6 Union of Independent States Moldova      2000   11652
##  7 Union of Independent States Tajikistan   2000   11043
##  8 Union of Independent States Turkmenistan 2000    6738
##  9 Union of Independent States Uzbekistan   2000   40810
## 10 Union of Independent States Ukraine      2000   74748
## # ... with 246 more rows
…
